<?xml version="1.0" standalone="no"?>
<!DOCTYPE svg PUBLIC "-//W3C//DTD SVG 20010904//EN"
 "http://www.w3.org/TR/2001/REC-SVG-20010904/DTD/svg10.dtd">
<svg version="1.0" xmlns="http://www.w3.org/2000/svg"
 width="88.000000pt" height="88.000000pt" viewBox="0 0 88.000000 88.000000"
 preserveAspectRatio="xMidYMid meet">

<g transform="translate(0.000000,88.000000) scale(0.100000,-0.100000)"
fill="#000000" stroke="none">
<path d="M203 677 c-185 -185 -203 -206 -203 -237 0 -31 18 -52 203 -237 180
-180 206 -203 235 -203 42 0 72 30 72 72 0 29 -20 53 -167 200 l-168 168 168
168 c147 147 167 171 167 200 0 42 -30 72 -72 72 -29 0 -55 -23 -235 -203z"/>
<path d="M775 801 c-30 -14 -335 -325 -335 -343 0 -19 303 -358 336 -376 48
-26 104 12 104 71 0 24 -24 53 -126 158 l-127 129 127 134 c133 141 144 162
109 204 -21 25 -60 35 -88 23z"/>
</g>
</svg>
